<?xml version="1.0" encoding="UTF-8"?>
<glyph name="oacute" format="2">
  <advance width="1200"/>
  <unicode hex="00F3"/>
  <anchor x="600" y="-150" name="bottom"/>
  <outline>
    <component base="o"/>
    <component base="acutecomb" yOffset="4"/>
  </outline>
  <lib>
  <dict>
  <key>com.fontlab.recipe</key>
  <string>o+acutecomb</string>
  </dict>
  </lib>
</glyph>
