<?xml version="1.0" encoding="UTF-8"?>
<glyph name="aring" format="2">
  <advance width="1200"/>
  <unicode hex="00E5"/>
  <anchor x="600" y="-150" name="bottom"/>
  <outline>
    <component base="a"/>
    <component base="ringcomb" xOffset="38" yOffset="66"/>
  </outline>
  <lib>
  <dict>
  <key>com.fontlab.recipe</key>
  <string>a+uni030A</string>
  </dict>
  </lib>
</glyph>
