<?xml version="1.0" encoding="UTF-8"?>
<glyph name="Tcedilla" format="2">
  <advance width="1200"/>
  <unicode hex="0162"/>
  <anchor x="600" y="1542" name="top"/>
  <outline>
    <component base="T"/>
    <component base="cedilla" xOffset="40" yOffset="-10"/>
  </outline>
  <lib>
  <dict>
  <key>com.fontlab.recipe</key>
  <string>T+cedilla</string>
  </dict>
  </lib>
</glyph>
