<?xml version="1.0" encoding="UTF-8"?>
<glyph name="uni1E2D" format="2">
  <advance width="1200"/>
  <unicode hex="1E2D"/>
  <anchor x="600" y="-150" name="bottom"/>
  <outline>
    <component base="i"/>
    <component base="tildebelowcomb"/>
  </outline>
  <lib>
  <dict>
  <key>com.fontlab.recipe</key>
  <string>i+uni0330</string>
  <key>public.markColor</key>
  <string>1,0.6,0.6,1</string>
  </dict>
  </lib>
</glyph>
